# setting LC_ALL to "C"
# --> Including file '/home/marco/Devel/LHCb/workspace/Gaudi/GaudiExamples/options/DataOnDemand.py'
# <-- End of file '/home/marco/Devel/LHCb/workspace/Gaudi/GaudiExamples/options/DataOnDemand.py'
# applying configuration of GaudiExamplesCommonConf
# /***** User GaudiExamplesCommonConf/GaudiExamplesCommonConf ****************************************
# |-OutputLevel = 3
# |-DummyEvents = -1
# \----- (End of User GaudiExamplesCommonConf/GaudiExamplesCommonConf) -------------------------------
ApplicationMgr    SUCCESS
====================================================================================================================================
                                                   Welcome to ApplicationMgr (GaudiCoreSvc v4r1)
                                          running on pcphlbc16 on Mon Jun 27 11:31:39 2016
====================================================================================================================================
ApplicationMgr       INFO Application Manager Configured successfully
StatusCodeSvc        INFO initialize
DataOnDemandSvc   WARNING Algorithms [[deprecated]] use AlgMap [DataOnDemandSvc]
DataOnDemandSvc   WARNING Nodes [[deprecated]] use NodeMap [DataOnDemandSvc]
MyDataAlgorithm      INFO initializing....
MyDataAlgorithm      INFO ....initialization done
EventLoopMgr      WARNING Unable to locate service "EventSelector"
EventLoopMgr      WARNING No events will be processed from external input.
HistogramPersis...WARNING Histograms saving not required.
ApplicationMgr       INFO Application Manager Initialized successfully
ApplicationMgr       INFO Application Manager Started successfully
MyDataAlgorithm      INFO executing....
MuonDigits           INFO initializing....
MuonDigits           INFO executing....
MuonFoos             INFO initializing....
MuonFoos             INFO executing....
MyDataAlgorithm      INFO ....execution done
MyDataAlgorithm      INFO executing....
MuonDigits           INFO executing....
MuonFoos             INFO executing....
MyDataAlgorithm      INFO ....execution done
MyDataAlgorithm      INFO executing....
MuonDigits           INFO executing....
MuonFoos             INFO executing....
MyDataAlgorithm      INFO ....execution done
MyDataAlgorithm      INFO executing....
MuonDigits           INFO executing....
MuonFoos             INFO executing....
MyDataAlgorithm      INFO ....execution done
MyDataAlgorithm      INFO executing....
MuonDigits           INFO executing....
MuonFoos             INFO executing....
MyDataAlgorithm      INFO ....execution done
MyDataAlgorithm      INFO executing....
MuonDigits           INFO executing....
MuonFoos             INFO executing....
MyDataAlgorithm      INFO ....execution done
MyDataAlgorithm      INFO executing....
MuonDigits           INFO executing....
MuonFoos             INFO executing....
MyDataAlgorithm      INFO ....execution done
MyDataAlgorithm      INFO executing....
MuonDigits           INFO executing....
MuonFoos             INFO executing....
MyDataAlgorithm      INFO ....execution done
MyDataAlgorithm      INFO executing....
MuonDigits           INFO executing....
MuonFoos             INFO executing....
MyDataAlgorithm      INFO ....execution done
MyDataAlgorithm      INFO executing....
MuonDigits           INFO executing....
MuonFoos             INFO executing....
MyDataAlgorithm      INFO ....execution done
ApplicationMgr       INFO Application Manager Stopped successfully
MuonDigits           INFO finalizing....
MuonFoos             INFO finalizing....
MyDataAlgorithm      INFO finalizing....
EventLoopMgr         INFO Histograms converted successfully according to request.
DataOnDemandSvc      INFO Handled "DataFault" incidents: 20/20/40(Alg/Node/Total).
ApplicationMgr       INFO Application Manager Finalized successfully
ApplicationMgr       INFO Application Manager Terminated successfully
